/* XPM */
static char *result[] = {
/* columns rows colors chars-per-pixel */
"64 64 138 2 ",
"   c #0A0911",
".  c #0E0D19",
"X  c #110810",
"o  c #1D0910",
"O  c #110F1D",
"+  c #12111E",
"@  c #1D111F",
"#  c #230910",
"$  c #2A0910",
"%  c #210E19",
"&  c #360E16",
"*  c #3B0B11",
"=  c #3B0F1D",
"-  c #23101E",
";  c #2D101E",
":  c #35111C",
">  c #3C111A",
",  c #0B1624",
"<  c #071925",
"1  c #0C1826",
"2  c #0E1D2B",
"3  c #141223",
"4  c #1A1222",
"5  c #161825",
"6  c #181927",
"7  c #171728",
"8  c #181729",
"9  c #131C2B",
"0  c #1B1B2C",
"q  c #1E1E31",
"w  c #241020",
"e  c #2B1423",
"r  c #241C2D",
"t  c #341625",
"y  c #3E1D2C",
"u  c #211F34",
"i  c #12202F",
"p  c #142131",
"a  c #1F2132",
"s  c #212335",
"d  c #25253A",
"f  c #2A263C",
"g  c #22293D",
"h  c #29293E",
"j  c #3A2D3D",
"k  c #420C10",
"l  c #4B0E13",
"z  c #440F1B",
"x  c #4D0E1A",
"c  c #510D13",
"v  c #580F13",
"b  c #550E19",
"n  c #4E1016",
"m  c #5F151B",
"M  c #710B0F",
"N  c #7A0B0F",
"B  c #670E10",
"V  c #6C0D10",
"C  c #740D10",
"Z  c #7B0D10",
"A  c #72131C",
"S  c #7A131E",
"D  c #401827",
"F  c #4E1A27",
"G  c #4A1C2A",
"H  c #5B1821",
"J  c #5B1F2F",
"K  c #6A1822",
"L  c #472C2D",
"P  c #4A2E2F",
"I  c #57212F",
"U  c #422B34",
"Y  c #762326",
"T  c #75393A",
"R  c #7F3C3B",
"E  c #2D2C42",
"W  c #312F47",
"Q  c #332F49",
"!  c #34324B",
"~  c #39314B",
"^  c #393652",
"/  c #3C3955",
"(  c #3F3B59",
")  c #413D5B",
"_  c #6C4649",
"`  c #6F5449",
"'  c #820B0F",
"]  c #8E0C0F",
"[  c #960B0F",
"{  c #9D0B0F",
"}  c #830D11",
"|  c #8D0C11",
" . c #940C10",
".. c #9B0C11",
"X. c #941418",
"o. c #AC060C",
"O. c #A30B0F",
"+. c #A40C11",
"@. c #A90C11",
"#. c #B40D12",
"$. c #BC0D12",
"%. c #A01214",
"&. c #832E30",
"*. c #843136",
"=. c #9F3937",
"-. c #C00D12",
";. c #9E4240",
":. c #9E4749",
">. c #B34E46",
",. c #986A5F",
"<. c #A2625A",
"1. c #A8665C",
"2. c #A46B5E",
"3. c #BE6D5F",
"4. c #B66B61",
"5. c #AF7264",
"6. c #BC7366",
"7. c #B67C6C",
"8. c #C36D63",
"9. c #C17161",
"0. c #C5816F",
"q. c #CC8A75",
"w. c #D38E75",
"e. c #AD8F80",
"r. c #BDADA5",
"t. c #D99D81",
"y. c #DCA284",
"u. c #DBA388",
"i. c #D0B19B",
"p. c #E1AA89",
"a. c #E1B098",
"s. c #DDACA1",
"d. c #CDBAAE",
"f. c #EAC7B6",
"g. c #F4D4BB",
"h. c #F6D9C1",
"j. c #FEECD9",
"k. c None",
/* pixels */
"k.k.k.k.k.k.k.k.k.k.k.k.k.k.k.k.k.k.k.k.k.k.k.k.k.k.k.k.k.k.k.k.k.k.k.k.k.k.k.k.k.k.k.k.k.k.k.k.k.k.k.k.k.k.k.k.k.k.k.k.k.k.k.k.",
"k.k.k.k.k.k.k.k.k.k.k.k.k.k.k.k.k.N k.k.k.k.k.k.k.k.k.k.k.k.k.k.k.k.k.k.k.k.k.k.k.k.k.k.k.k.k.k.k.k.k.k.k.k.k.k.k.k.k.k.k.k.k.k.",
"k.k.k.k.k.k.k.k.k.k.k.k.k.k.k.k.k.k.k.k.k.k.k.k.k.k.k.k.k.k.k.k.k.k.k.k.k.k.k.k.k.k.k.k.k.k.k.k.k.k.k.k.k.k.k.k.k.k.k.k.k.k.k.k.",
"k.k.k.k.k.k.k.k.k.k.k.k.k.k.k.k.k.k.k.k.k.k.k.k.k.k.k.k.k.k.k.k.k.k.k.k.k.k.k.k.k.k.k.k.k.k.k.k.k.k.k.k.k.k.k.k.k.k.k.k.k.k.k.k.",
"k.k.k.k.k.k.k.k.k.k.k.k.k.k.k.k.k.k.k.k.k.k.k.k.k.k.k.k.k.k.k.k.k.k.k.k.k.k.k.k.k.k.k.k.k.k.k.k.k.k.k.k.k.k.k.k.k.k.k.k.k.k.k.k.",
"k.k.k.k.k.k.k.k.k.k.k.k.k.k.k.k.k.k.k.k.k.k.k.k.k.k.k.k.k.k.k.k.k.k.k.k.k.k.k.k.k.k.k.k.k.k.k.k.k.k.k.k.k.k.k.k.k.k.k.k.k.k.k.k.",
"k.k.k.k.k.k.k.k.k.k.k.k.k.k.k.k.k.k.k.k.k.k.k.k.k.k.k.k.k.k.k.7 0 0 8 3 k.k.k.k.k.k.k.k.k.k.k.k.k.k.k.k.k.k.k.k.k.k.k.k.k.k.k.k.",
"k.k.k.k.k.k.k.k.k.k.k.N N N k.k.k.k.k.k.k.k.k.k.k.k.k.k.k.k.. s / ) W 3 3 k.k.k.k.k.k.k.k.k.k.k.k.k.k.k.k.k.k.k.k.k.k.k.k.k.k.k.",
"k.k.k.k.k.k.k.k.k.k.N N N N k.k.k.k.k.k.k.k.k.k.k.k.k.k.  3 q 1 p p g W 7 3 k.k.k.k.k.k.k.k.k.k.k.k.k.k.k.k.k.k.k.k.k.k.k.k.k.k.",
"k.k.k.k.k.k.k.k.N N N N N N N k.k.k.k.k.k.k.k.k.k.k.k.  3 7 7 < < < 9 g E 0 3 k.k.k.k.k.k.k.k.k.k.k.k.k.k.k.k.k.k.k.k.k.k.k.k.k.",
"k.k.k.k.k.k.k.N N  .| ' N N N N k.k.k.k.k.k.k.k.k.k.k.  6 y x , < t > 2 / q 3 k.k.k.k.k.k.k.k.k.k.k.k.k.k.k.k.k.k.k.k.k.k.k.k.k.",
"k.k.k.k.k.k.N '  .$.-.+.N N N N N k.k.k.k.k.k.k.k.k.k.  6 S o.3 < }  .2 / u 3 O k.k.k.k.k.k.k.k.k.k.k.k.k.k.k.k.k.k.k.k.k.k.k.k.",
"k.k.k.k.k.k.N  .$.-.-.$.+.N N N N k.k.k.k.k.k.k.k.k.k.  0 r w O , 5 3 2 / a 3 3 k.k.k.k.) k.k.k.k.k.k.k.k.k.k.k.k.k.k.k.k.k.k.k.",
"k.k.k.k.k.N ..@.@.@.| } | @.' N N k.N k.k.k.k.k.k.k.k.  0 0 3 3 3 , < 2 / s 3 3 k.k.k.) ) k.k.k.k.k.k.k.k.k.k.k.k.k.k.k.k.k.k.k.",
"k.k.k.k.N [ O.@.{ { C B C ....} N N N k.k.k.k.k.k.k.k.s 0 0 7 3 3 , 3 q / u 3 3 k.k.^ / ! k.k.k.k.k.k.k.k.k.k.k.k.k.k.k.k.k.k.k.",
"k.k.k.k.' $.@.O.[ N M C C V #...' N N k.k.k.k.k.O O k.! 0 7 0 7 7 8 s E ! q 3 . . g ! ! h k.k.k.k.k.k.k.k.k.k.k.k.k.k.k.k.k.k.k.",
"k.k.k.k.' #.@.{ ' X N { ] V #.$.O.N N k.k.k.k.k.    3 3   . 7 u s Q ) ^ 7 3 . . g ^ E E / 8 k.k.k.k.k.k.k.k.k.k.k.k.k.k.k.k.k.k.",
"k.k.k.k.N $.| c #   N [ [ V #.-.+.N k.k.k.k.k.k.  . 3 3 E u . 3 7 8 0 0 . 8 q s ^ E d q q q k.k.k.k.k.k.k.k.k.k.k.k.k.k.k.k.k.k.",
"k.k.k.k.k. ...C k * ' [ B * @.-.+.N k.k.k.k.k.k.. . . 3 q u u . + O 7 h 8 0 q q E ! E q 0 s s k.k.k.k.k.k.k.k.k.k.k.k.k.k.k.k.k.",
"k.k.k.k.k.N ....} Z [ ' l X V O.+.N k.k.k.k.k.k.. .   3 3 u E r u 4 0 ~ G F t 7 0 ^ E 0 q a q 0 k.k.k.k.k.k.k.k.k.k.k.k.k.k.k.k.",
"k.k.k.k.k.k.N  .@.O.{ N l     M +.N k.k.k.k.k.    . 3 3 @ 4 r ^ / d 8 D } | b 3 7 W d 3 3 s 7 3 k.k.k.k.k.k.k.k.k.k.k.k.k.k.k.k.",
"k.k.k.k.k.k.k.k.] $.N V l     c N k.k.k.k.k.k.3 3 3 .   k = 3 7 4 q G } e 4 4 3 a 6 0 q 3 q 8 3 k.k.k.k.k.k.k.k.k.k.k.k.k.k.k.k.",
"k.k.k.k.k.k.k.k.N ] O.O.N     o $ k.k.k.k.k.k.3 X . .   % > n n Q J :.s.r.e.,._ s q 0 8 k.7 3 3 3 k.k.k.k.k.k.k.k.k.k.k.k.k.k.k.",
"k.k.k.k.k.k.k.k.N N [ { ' * X     k.k.k.k.k.  3 .   .   + % z B J *.8.g.j.h.a.7._ j 8 u ^ 3 3 3 3 k.k.k.k.k.k.k.k.k.k.k.k.k.k.k.",
"k.k.k.k.k.k.k.k.k.N N N N M o     k.k.k.k.k.5 + . . 3 k.3 4 : c m T 2.u.f.d.i.y.4.k.k.! / s 7 3 3 k.k.k.k.k.k.k.k.k.k.k.k.k.k.k.",
"k.k.k.k.k.k.k.k.k.k.k.k.k.k.k.      k.k.k.) ( + . + k.k.k.k.c 4 ~ u L 6.4.L ` t.4.k.s E ) ) u 3 3 k.k.k.k.k.k.k.k.k.k.k.k.k.k.k.",
"k.k.k.k.k.k.k.k.k.k.k.k.k.k.k.      k.k.k./ d s +   k.k.k.k.: v m *.5.u.y.5.1.6.4.k.s u 6 0 8 3 k.k.k.k.k.k.k.k.k.k.k.k.k.k.k.k.",
"k.k.k.k.k.k.k.k.k.k.k.k.k.k.k.        k.k.h s s 6 k.k.k.k.k.% : : Y >.w.p.t.0.4.k.j 0 6 0 0 8 k.k.k.k.k.k.k.k.k.k.k.k.k.k.k.k.k.",
"k.k.k.k.k.k.k.k.k.k.k.k.k.k.k.k.      k.k.s s s k.k.k.k.k.k.k.3 3 z &.6.u.w.9.:.k.E s 0 s s k.k.k.k.k.k.k.k.k.k.k.k.k.k.k.k.k.k.",
"k.k.k.k.k.k.k.k.k.k.k.k.k.k.k.k.k.    k.a s d d k.k.k.k.k.k.k.k.@ 4 U 1.w.6.=.S a ^ E g s k.k.k.k.k.k.k.k.k.k.k.k.k.k.k.k.k.k.k.",
"k.k.k.k.k.k.k.k.k.k.k.k.k.k.k.k.k.k.    5 h ) ) k.k.k.k.k.k.k.  c : 5 e X...K s 3 ~ W s k.k.k.k.k.k.k.k.k.k.k.k.k.k.k.k.k.k.k.k.",
"k.k.k.k.k.k.k.k.k.k.k.k.k.k.k.k.k.k.    0 / ) E k.k.k.k.k.k.    # * n n > > ; 5 O g h k.k.k.k.k.k.k.k.k.k.k.k.k.k.k.k.k.k.k.k.k.",
"k.k.k.k.k.k.k.k.k.k.k.k.k.k.k.k.k.k.    0 ! ( E k.k.k.k.k.k.      # * & d u 0 7 3 7 7 k.k.k.k.k.k.k.k.k.k.k.k.k.k.k.k.k.k.k.k.k.",
"k.k.k.k.k.k.k.k.k.k.k.k.k.k.k.k.k.k.  . 6 d ! k.k.k.k.k.k.k.        . O h s r u 3 3 3 7 k.k.k.k.k.k.k.k.k.k.k.k.k.k.k.k.k.k.k.k.",
"k.k.k.k.k.k.k.k.k.k.k.k.k.k.k.k.k.k.k.s s 0 3 k.k.k.k.k.k.k.    3 3 3 +   . 6 a 3 3 0 0 3 k.k.k.k.k.k.k.k.k.k.k.k.k.k.k.k.k.k.k.",
"k.k.k.k.k.k.k.k.k.k.k.k.k.k.k.k.k.k.k.s 5 .   k.k.k.k.k.k.k.  . 3 6 0 3     5 s q 3 0 q 3 3 k.k.k.k.k.k.k.k.k.k.k.k.k.k.k.k.k.k.",
"k.k.k.k.k.k.k.k.k.k.k.k.k.k.k.k.k.k.k.k.k.    k.k.k.k.k.k.k.  3 3 7 0 0 6 . . + 7 3 0 q 3 0 q k.k.k.k.k.k.k.k.k.k.k.k.k.k.k.k.k.",
"k.k.k.k.k.k.k.k.k.k.k.k.k.k.k.k.k.k.k.k.k.k.    k.k.k.k.k.  . 3 3 3 3 6 0 3     3 3 0 q 3 q q 0 k.k.k.k.k.k.k.k.k.k.k.k.k.k.k.k.",
"k.k.k.k.k.k.k.k.k.k.k.k.k.k.k.k.k.k.k.k.k.k.    k.k.k.k.      3 3 3 3 3 3 O . . q 0 q q 3 a 7 3 3 k.k.k.k.k.k.k.k.k.k.k.k.k.k.k.",
"k.k.k.k.k.k.k.k.k.k.k.k.k.k.k.k.k.k.k.k.k.k.k.  k.k.k.k.      3 O 3 3 3 3 . . q ( ( E q 3 s 7 3 3 k.k.k.k.k.k.k.k.k.k.k.k.k.k.k.",
"k.k.k.k.k.k.k.k.k.k.k.k.k.k.k.k.k.k.k.k.k.k.k.k.  k.k.k.      3 3 8 q q 3 . + 0 u ^ / E 3 7 0 0 3 k.k.k.k.k.k.k.k.k.k.k.k.k.k.k.",
"k.k.k.k.k.k.k.k.k.k.k.k.k.k.k.k.k.k.k.k.k.k.k.k.    k.k.    . O 7 q a q 3   . a 0 d f f f 3 7 7 k.k.k.k.k.k.k.k.k.k.k.k.k.k.k.k.",
"k.k.k.k.k.k.k.k.k.k.k.k.k.k.k.k.k.k.k.k.k.k.k.k.k.  k.k.k.. O 3 q s s a 3 .   k.s 8 0 E / 8 3 k.k.k.k.k.k.k.k.k.k.k.k.k.k.k.k.k.",
"k.k.k.k.k.k.k.k.k.k.k.k.k.k.k.k.k.k.k.k.k.k.k.k.k.k.  k.k.k.. 3 q g s k.k.    k.k.s W / ^ 0 k.k.k.k.k.k.k.k.k.k.k.k.k.k.k.k.k.k.",
"k.k.k.k.k.k.k.k.k.k.k.k.k.k.k.k.k.k.k.k.k.k.k.k.k.k.  k.k.k.. q s s s k.k.    k.k.3 q s 8 u 8 k.k.k.k.k.k.k.k.k.k.k.k.k.k.k.k.k.",
"k.k.k.k.k.k.k.k.k.k.k.k.k.k.k.k.k.k.k.k.k.k.k.k.k.k.k.  k.k.6 7 7 3 3 k.k.k.k.k.k.k.8 0 0 s q 6 3 k.k.k.k.k.k.k.k.k.k.k.k.k.k.k.",
"k.k.k.k.k.k.k.k.k.k.k.k.k.k.k.k.k.k.k.k.k.k.k.k.k.k.k.  k.k.+ . 3 . . k.k.k.k.k.k.k.3 3 0 s s q 6 k.k.k.k.k.k.k.k.k.k.k.k.k.k.k.",
"k.k.k.k.k.k.k.k.k.k.k.k.k.k.k.k.k.k.k.k.k.k.k.k.k.k.k.  k.      . + .   k.k.k.k.k.k.k.3 3 q s s q 3 k.k.k.k.k.k.k.k.k.k.k.k.k.k.",
"k.k.k.k.k.k.k.k.k.k.k.k.k.k.k.k.k.k.k.k.k.k.k.k.k.k.k.k.          . 3 3 k.k.k.k.k.k.k.k.3 3 0 s q 3 k.k.k.k.k.k.k.k.k.k.k.k.k.k.",
"k.k.k.k.k.k.k.k.k.k.k.k.k.k.k.k.k.k.k.k.k.k.k.k.k.k.k.k.                k.k.k.k.k.k.k.k.k.3 0 q 7 3 k.k.k.k.k.k.k.k.k.k.k.k.k.k.",
"k.k.k.k.k.k.k.k.k.k.k.k.k.k.k.k.k.k.k.k.k.k.k.k.k.k.k.k.k.              k.k.k.k.k.k.k.k.k.3 7 6 0 0 k.k.k.k.k.k.k.k.k.k.k.k.k.k.",
"k.k.k.k.k.k.k.k.k.k.k.k.k.k.k.k.k.k.k.k.k.k.k.k.k.k.k.k.k.k.            k.k.k.k.k.k.k.k.k.3 3 7 q s k.k.k.k.k.k.k.k.k.k.k.k.k.k.",
"k.k.k.k.k.k.k.k.k.k.k.k.k.k.k.k.k.k.k.k.k.k.k.k.k.k.k.k.k.k.  k.          k.k.k.k.k.k.k.k.k.3 3 7 s s k.k.k.k.k.k.k.k.k.k.k.k.k.",
"k.k.k.k.k.k.k.k.k.k.k.k.k.k.k.k.k.k.k.k.k.k.k.k.k.k.k.k.k.k.k.  k.        k.k.k.k.k.k.k.k.k.k.k.7 s s k.k.k.k.k.k.k.k.k.k.k.k.k.",
"k.k.k.k.k.k.k.k.k.k.k.k.k.k.k.k.k.k.k.k.k.k.k.k.k.k.k.k.k.k.k.k.k.k.      k.k.k.k.k.k.k.k.k.k.k.3 7 q s k.k.k.k.k.k.k.k.k.k.k.k.",
"k.k.k.k.k.k.k.k.k.k.k.k.k.k.k.k.k.k.k.k.k.k.k.k.k.k.k.k.k.k.k.k.k.k.k.    k.k.k.k.k.k.k.k.k.k.k.3 + 8 q s k.k.k.k.k.k.k.k.k.k.k.",
"k.k.k.k.k.k.k.k.k.k.k.k.k.k.k.k.k.k.k.k.k.k.k.k.k.k.k.k.k.k.k.k.k.k.k.    k.k.k.k.k.k.k.k.k.k.k.k.3 3 0 s k.k.k.k.k.k.k.k.k.k.k.",
"k.k.k.k.k.k.k.k.k.k.k.k.k.k.k.k.k.k.k.k.k.k.k.k.k.k.k.k.k.k.k.k.k.k.k.3 k.k.k.k.k.k.k.k.k.k.k.k.k.3 3 0 s k.k.k.k.k.k.k.k.k.k.k.",
"k.k.k.k.k.k.k.k.k.k.k.k.k.k.k.k.k.k.k.k.k.k.k.k.k.k.k.k.k.k.k.k.k.k.k.k.k.k.k.k.k.k.k.k.k.k.k.k.k.k.3 3 7 k.k.k.k.k.k.k.k.k.k.k.",
"k.k.k.k.k.k.k.k.k.k.k.k.k.k.k.k.k.k.k.k.k.k.k.k.k.k.k.k.k.k.k.k.k.k.k.k.k.k.k.k.k.k.k.k.k.k.k.k.k.k.3 3 3 k.k.k.k.k.k.k.k.k.k.k.",
"k.k.k.k.k.k.k.k.k.k.k.k.k.k.k.k.k.k.k.k.k.k.k.k.k.k.k.k.k.k.k.k.k.k.k.k.k.k.k.k.k.k.k.k.k.k.k.k.k.k.k.3 k.k.k.k.k.k.k.k.k.k.k.k.",
"k.k.k.k.k.k.k.k.k.k.k.k.k.k.k.k.k.k.k.k.k.k.k.k.k.k.k.k.k.k.k.k.k.k.k.k.k.k.k.k.k.k.k.k.k.k.k.k.k.k.k.k.k.k.k.k.k.k.k.k.k.k.k.k.",
"k.k.k.k.k.k.k.k.k.k.k.k.k.k.k.k.k.k.k.k.k.k.k.k.k.k.k.k.k.k.k.k.k.k.k.k.k.k.k.k.k.k.k.k.k.k.k.k.k.k.k.k.k.k.k.k.k.k.k.k.k.k.k.k.",
"k.k.k.k.k.k.k.k.k.k.k.k.k.k.k.k.k.k.k.k.k.k.k.k.k.k.k.k.k.k.k.k.k.k.k.k.k.k.k.k.k.k.k.k.k.k.k.k.k.k.k.k.k.k.k.k.k.k.k.k.k.k.k.k."
};
