/* XPM */
static char *result[] = {
/* columns rows colors chars-per-pixel */
"64 64 138 2 ",
"   c #0A0911",
".  c #0E0D19",
"X  c #150810",
"o  c #1E0910",
"O  c #100F1D",
"+  c #12111E",
"@  c #1A101B",
"#  c #200910",
"$  c #2A0910",
"%  c #370D14",
"&  c #3B0D14",
"*  c #320E18",
"=  c #3F0F19",
"-  c #26101E",
";  c #2E101D",
":  c #32101D",
">  c #3A101A",
",  c #0D1524",
"<  c #071925",
"1  c #091925",
"2  c #141223",
"3  c #1B1627",
"4  c #171826",
"5  c #191827",
"6  c #171728",
"7  c #181729",
"8  c #121E2D",
"9  c #1B1B2C",
"0  c #1E1E30",
"q  c #3A1B2B",
"w  c #211E32",
"e  c #13202F",
"r  c #1F2133",
"t  c #2F202D",
"y  c #212335",
"u  c #26253A",
"i  c #29263D",
"p  c #242A3F",
"a  c #29283E",
"s  c #372537",
"d  c #3E2B36",
"f  c #312B3A",
"g  c #540A0F",
"h  c #470910",
"j  c #4C0A11",
"k  c #440F18",
"l  c #530E12",
"z  c #5E0C12",
"x  c #510F1A",
"c  c #47121B",
"v  c #4A121C",
"b  c #6D0B0F",
"n  c #720A0F",
"m  c #7A0B0F",
"M  c #660E11",
"N  c #6C0D12",
"B  c #720D12",
"V  c #7B0D11",
"C  c #651115",
"Z  c #63141F",
"A  c #72141F",
"S  c #7E1219",
"D  c #461522",
"F  c #4B1725",
"G  c #471926",
"H  c #4D2434",
"J  c #472A34",
"K  c #48283B",
"L  c #542F36",
"P  c #513A3E",
"I  c #7C232F",
"U  c #643237",
"Y  c #6B3D3F",
"T  c #773239",
"R  c #272C42",
"E  c #2C2A42",
"W  c #312F47",
"Q  c #322F49",
"!  c #34324B",
"~  c #38344F",
"^  c #3A3652",
"/  c #3D3956",
"(  c #3E3B58",
")  c #4B3047",
"_  c #413D5B",
"`  c #5C4C4D",
"'  c #754B45",
"]  c #675B60",
"[  c #7A6763",
"{  c #820B0F",
"}  c #8C0C0F",
"|  c #940C0F",
" . c #9C0B0F",
".. c #840C10",
"X. c #890B10",
"o. c #940C11",
"O. c #9C0C10",
"+. c #831017",
"@. c #A00B0F",
"#. c #A30C11",
"$. c #AB0C11",
"%. c #B40D11",
"&. c #BA0D12",
"*. c #842126",
"=. c #80272C",
"-. c #8B3937",
";. c #A72F2E",
":. c #AE3E39",
">. c #C00D12",
",. c #93413E",
"<. c #82544C",
"1. c #935E59",
"2. c #B14C45",
"3. c #B85347",
"4. c #B05856",
"5. c #936257",
"6. c #A4625B",
"7. c #B2695F",
"8. c #B56A60",
"9. c #BC7466",
"0. c #C46660",
"q. c #C07262",
"w. c #A18271",
"e. c #C7816F",
"r. c #C68473",
"t. c #C88572",
"y. c #CB8974",
"u. c #CF947B",
"i. c #D1947D",
"p. c #CD9588",
"a. c #D79B80",
"s. c #DCA285",
"d. c #E3AD8B",
"f. c #ECBFA1",
"g. c #EEC7AC",
"h. c #FDEAD6",
"j. c #FFEEDB",
"k. c None",
/* pixels */
"k.k.k.k.k.k.k.k.k.k.k.k.k.k.k.k.k.k.k.k.k.k.k.k.k.k.k.k.k.k.k.k.k.k.k.k.k.k.k.k.k.k.k.k.k.k.k.k.k.k.k.k.k.k.k.k.k.k.k.k.k.k.k.k.",
"k.k.k.k.k.k.k.k.k.k.k.k.k.k.k.k.k.k.k.k.k.k.k.k.k.k.k.k.k.k.k.k.k.k.k.k.k.k.k.k.k.k.k.k.k.k.k.k.k.k.k.k.k.k.k.k.k.k.k.k.k.k.k.k.",
"k.k.k.k.k.k.k.k.k.k.k.k.k.k.k.k.k.k.k.k.k.k.k.k.k.k.k.k.k.k.k.k.k.k.k.k.k.k.k.k.k.k.k.k.k.k.k.k.k.k.k.k.k.k.k.k.k.k.k.k.k.k.k.k.",
"k.k.k.k.k.k.k.k.k.k.k.k.k.k.k.k.k.k.k.k.k.k.k.k.k.k.k.k.k.k.k.k.k.k.k.k.k.k.k.k.k.k.k.k.k.k.k.k.k.k.m k.k.k.k.k.k.k.k.k.k.k.k.k.",
"k.k.k.k.k.k.k.k.k.k.k.k.k.k.k.k.k.k.k.k.k.k.k.k.k.k.k.k.k.k.k.k.k.k.k.k.k.k.k.k.k.k.k.k.k.k.k.k.k.k.k.k.k.k.k.k.k.k.k.k.k.k.k.k.",
"k.k.k.k.k.k.k.k.k.k.k.k.k.k.k.k.k.k.k.k.k.k.k.k.k.k.k.k.k.2 2 2 2 2 k.k.k.k.k.k.k.k.k.k.k.k.k.k.k.k.k.k.k.k.k.k.k.k.k.k.k.k.k.k.",
"k.k.k.k.k.k.k.k.k.k.k.k.k.k.k.k.k.k.k.k.k.k.k.k.k.k.k.k.2 2 u Q E r O k.k.k.k.k.k.k.k.k.k.k.k.k.k.k.k.k.m m k.k.k.k.k.k.k.k.k.k.",
"k.k.k.k.k.k.k.k.k.k.k.k.k.k.k.k.k.k.k.k.k.k.k.k.k.k.k.2 2 y E R a e 2 + k.k.k.k.k.k.k.k.k.k.k.k.k.k.k.k.m m m k.k.k.k.k.k.k.k.k.",
"k.k.k.k.k.k.k.k.k.k.k.k.k.k.k.k.k.k.k.k.k.k.k.k.k.k.k.7 0 ! r < < < 8 4 . k.k.k.k.k.k.k.k.k.k.k.k.k.k.} } } } } k.k.k.k.k.k.k.k.",
"k.k.k.k.k.k.k.k.k.k.k.k.k.k.k.k.k.k.k.k.k.k.k.k.k.k.k.0 ( e < < < < 2 9 9   k.k.k.k.k.k.k.k.k.k.k.k.X.>.&.>.&.&.m k.k.k.k.k.k.k.",
"k.k.k.k.k.k.k.k.k.k.k.k.k.k.k.k.k.k.k.k.k.k.k.k.k.2 2 0 ( 8 V V , ,  .A 9   k.k.k.k.k.k.k.k.k.k.m m } &.>.>.>.&.{ m k.k.k.k.k.k.",
"k.k.k.k.k.k.k.k.k.k.k.k.k.k.k.k.k.k.k.k.k.k.k.k.k.2 , 0 / e v c < 2 z F 7   k.k.k.k.k.k.k.k.k.k.m X.$.>.>.>.>.&.#...m k.k.k.k.k.",
"k.k.k.k.k.k.k.k.k.k.k.k.k.k.k.k.k.k.k.k._ _ k.k.k.2 2 0 ( 8 < 1 , 2 2 9 7   k.k.k.k.k.k.k.k.k.m m O.>.>.#.#.#.%.%. .{ m k.k.k.k.",
"k.k.k.k.k.k.k.k.k.k.k.k.k.k.k.k.k.k.k.k.( ( _ k.k.2 2 w ( e < , 2 2 2 9 9 . k.k.k.k.k.k.k.k.k.m m O.&.%.m C V  . .%.#.{ m k.k.k.",
"k.k.k.k.k.k.k.k.k.k.k.k.k.k.k.k.k.k.k.k.u ~ ~ 9   O 2 0 ( u 6 2 2 2 0 6 w ^ k.2 2 k.k.k.k.k.k.m #.&.%.B b b V @. .@.$.$.m k.k.k.",
"k.k.k.k.k.k.k.k.k.k.k.k.k.k.k.k.k.k.k.2 ! E W Q 9 O . 7 y ! ! i 9 9 6 2 2 w 4 . . k.k.k.k.k.m m $.>.$.M { } b h |  .$.$.m k.k.k.",
"k.k.k.k.k.k.k.k.k.k.k.k.k.k.k.k.k.k.k.9 i a a ! W 9 4 6 . u E u 9 9 2 3 7 2 2     k.k.k.k.k.m o.%.>.$.M |  .b X g m #.%.m k.k.k.",
"k.k.k.k.k.k.k.k.k.k.k.k.k.k.k.k.k.k.k.y 7 9 u R ^ u r 9 . 9 2 + 2 O O u E 2 2 .   k.k.k.k.k.{ &.&.>.$.g .. .n o o z o.%.k.k.k.k.",
"k.k.k.k.k.k.k.k.k.k.k.k.k.k.k.k.k.k.y y y y E / u 6 9 y u / 9 . 2   Q i 2 O   . 2 k.k.k.k.k.{ &.>.&.o.  l { } M M #.O.m k.k.k.k.",
"k.k.k.k.k.k.k.k.k.k.k.k.k.k.k.k.k.k.7 y 4 4 u ^ 7 2 v ..S s 9 w ~ Q w 7 2 2 2 .     k.k.k.k.m &.>...$   l .. .| $.| { k.k.k.k.k.",
"k.k.k.k.k.k.k.k.k.k.k.k.k.k.k.k.k.k.4 y 4 6 0 u 9 2 q j x Z q y u i 7 ; * . 2 O . . k.k.k.k.m o.%.N     g m o.$.O.} k.k.k.k.k.k.",
"k.k.k.k.k.k.k.k.k.k.k.k.k.k.k.k.k.2 2 9 2 9 9 7 0 d P ` ] 4.T s w * ; = %   . . 2 2 k.k.k.k.m m ..j     b { o.#.V k.k.k.k.k.k.k.",
"k.k.k.k.k.k.k.k.k.k.k.k.k.k.k.k.2 2 2 2 k.4 7 u f 1.i.g.j.h.0.I ) M M * .       . 2 k.k.k.k.k.m $     X o.&.#.m k.k.k.k.k.k.k.k.",
"k.k.k.k.k.k.k.k.k.k.k.k.k.k.k.k.2 2 2 2 ~ k.k.k.6.i.g.j.j.f.q.,.Z M * 2 2 k.2   . O   k.k.k.k.k.    # n m { m k.k.k.k.k.k.k.k.k.",
"k.k.k.k.k.k.k.k.k.k.k.k.k.k.k.k.2 2 7 Q ( ! k.k.8.a.w.[ p.r.' J K * k > k.k.k.O . + a ^ k.k.k.      k.k.k.k.k.k.k.k.k.k.k.k.k.k.",
"k.k.k.k.k.k.k.k.k.k.k.k.k.k.k.k.k.2 7 E E u y k.8.t.5.' y.y.<.L H > k k.k.k.k.. + 9 ! _ k.k.k.      k.k.k.k.k.k.k.k.k.k.k.k.k.k.",
"k.k.k.k.k.k.k.k.k.k.k.k.k.k.k.k.k.k.2 2 4 9 r k.8.8.9.t.d.s.q.-.x l - k.k.k.k.k.4 r y ! k.k.k.      k.k.k.k.k.k.k.k.k.k.k.k.k.k.",
"k.k.k.k.k.k.k.k.k.k.k.k.k.k.k.k.k.k.k.y y 7 6 y k.8.y.d.d.9.;.M 2 2 k.k.k.k.k.k.k.y y y k.k.        k.k.k.k.k.k.k.k.k.k.k.k.k.k.",
"k.k.k.k.k.k.k.k.k.k.k.k.k.k.k.k.k.k.k.k.y y a ~ u *.2.y.d.9.U - 2 k.k.k.k.k.k.k.k.y y y k.k.    k.k.k.k.k.k.k.k.k.k.k.k.k.k.k.k.",
"k.k.k.k.k.k.k.k.k.k.k.k.k.k.k.k.k.k.k.k.k.y E ^ 9 G =.:.3.Y t - =   k.k.k.k.k.k.k.! ! u 4       k.k.k.k.k.k.k.k.k.k.k.k.k.k.k.k.",
"k.k.k.k.k.k.k.k.k.k.k.k.k.k.k.k.k.k.k.k.k.k.E ! 4 9 D N N = ; % &     k.k.k.k.k.k.^ _ Q 5     k.k.k.k.k.k.k.k.k.k.k.k.k.k.k.k.k.",
"k.k.k.k.k.k.k.k.k.k.k.k.k.k.k.k.k.k.k.k.k.k.k.0 2 2 2 4 3 x z &       k.k.k.k.k.k.a _ / 0     k.k.k.k.k.k.k.k.k.k.k.k.k.k.k.k.k.",
"k.k.k.k.k.k.k.k.k.k.k.k.k.k.k.k.k.k.k.k.k.2 2 2 4 9 r u ^ @ X         k.k.k.k.k.k.k._ E 2     k.k.k.k.k.k.k.k.k.k.k.k.k.k.k.k.k.",
"k.k.k.k.k.k.k.k.k.k.k.k.k.k.k.k.k.k.k.k.2 7 7 2 2 9 r 7 3 O O .       k.k.k.k.k.k.k.y y 9 4 k.k.k.k.k.k.k.k.k.k.k.k.k.k.k.k.k.k.",
"k.k.k.k.k.k.k.k.k.k.k.k.k.k.k.k.k.k.k.k.2 9 9 2 7 r 5 .   2 6 7 O O   k.k.k.k.k.k.k.. 2 r y k.k.k.k.k.k.k.k.k.k.k.k.k.k.k.k.k.k.",
"k.k.k.k.k.k.k.k.k.k.k.k.k.k.k.k.k.k.k.2 2 0 0 2 0 9 +   O 2 0 7 2 2   k.k.k.k.k.k.k.    4 y k.k.k.k.k.k.k.k.k.k.k.k.k.k.k.k.k.k.",
"k.k.k.k.k.k.k.k.k.k.k.k.k.k.k.k.k.k.y y 6 9 0 2 2 .   . y y 7 2 2 2   k.k.k.k.k.k.k.  k.k.k.k.k.k.k.k.k.k.k.k.k.k.k.k.k.k.k.k.k.",
"k.k.k.k.k.k.k.k.k.k.k.k.k.k.k.k.2 2 7 y 2 9 9 2 2   . + 2 2 2 2 O 2 .     k.k.k.k.    k.k.k.k.k.k.k.k.k.k.k.k.k.k.k.k.k.k.k.k.k.",
"k.k.k.k.k.k.k.k.k.k.k.k.k.k.k.k.2 2 6 y 3 9 u i E 4 . . 2 2 2 2 2 2 .     k.k.k.k.  k.k.k.k.k.k.k.k.k.k.k.k.k.k.k.k.k.k.k.k.k.k.",
"k.k.k.k.k.k.k.k.k.k.k.k.k.k.k.k.2 2 9 9 2 y ! _ Q 0 . . 2 4 4 4 2 2       k.k.k.k.  k.k.k.k.k.k.k.k.k.k.k.k.k.k.k.k.k.k.k.k.k.k.",
"k.k.k.k.k.k.k.k.k.k.k.k.k.k.k.k.2 7 0 2 6 E / Q 6 0 2 . + r y 9 2 2       k.k.    k.k.k.k.k.k.k.k.k.k.k.k.k.k.k.k.k.k.k.k.k.k.k.",
"k.k.k.k.k.k.k.k.k.k.k.k.k.k.k.k.k.2 2 2 Q i 7 9 r k.  . 2 y y y 9 2 2 .   k.k.    k.k.k.k.k.k.k.k.k.k.k.k.k.k.k.k.k.k.k.k.k.k.k.",
"k.k.k.k.k.k.k.k.k.k.k.k.k.k.k.k.k.k.2 2 ~ ~ E 0 k.k.k.  k.k.y y 0 2 .   k.k.  k.k.k.k.k.k.k.k.k.k.k.k.k.k.k.k.k.k.k.k.k.k.k.k.k.",
"k.k.k.k.k.k.k.k.k.k.k.k.k.k.k.k.k.k.2 9 i Q E 7 k.k.k.  k.k.y y y 7 . k.k.k.  k.k.k.k.k.k.k.k.k.k.k.k.k.k.k.k.k.k.k.k.k.k.k.k.k.",
"k.k.k.k.k.k.k.k.k.k.k.k.k.k.k.k.k.4 7 y 6 9 9 2 k.k.k.  k.k.9 9 0 0 + k.k.k.  k.k.k.k.k.k.k.k.k.k.k.k.k.k.k.k.k.k.k.k.k.k.k.k.k.",
"k.k.k.k.k.k.k.k.k.k.k.k.k.k.k.k.2 9 y y y 7 2 k.k.k.k.k.k.k.  . 2 2 0 k.k.  k.k.k.k.k.k.k.k.k.k.k.k.k.k.k.k.k.k.k.k.k.k.k.k.k.k.",
"k.k.k.k.k.k.k.k.k.k.k.k.k.k.k.2 9 r y y 7 2 2 k.k.k.k.k.k.  . O 2 . . k.k.  k.k.k.k.k.k.k.k.k.k.k.k.k.k.k.k.k.k.k.k.k.k.k.k.k.k.",
"k.k.k.k.k.k.k.k.k.k.k.k.k.k.k.2 0 y r 9 2 2 k.k.k.k.k.k.k.. O O           k.k.k.k.k.k.k.k.k.k.k.k.k.k.k.k.k.k.k.k.k.k.k.k.k.k.k.",
"k.k.k.k.k.k.k.k.k.k.k.k.k.k.k.2 7 r 0 2 2 k.k.k.k.k.k.k.k.. O .           k.k.k.k.k.k.k.k.k.k.k.k.k.k.k.k.k.k.k.k.k.k.k.k.k.k.k.",
"k.k.k.k.k.k.k.k.k.k.k.k.k.k.k.2 4 7 0 2 k.k.k.k.k.k.k.k.k.                k.k.k.k.k.k.k.k.k.k.k.k.k.k.k.k.k.k.k.k.k.k.k.k.k.k.k.",
"k.k.k.k.k.k.k.k.k.k.k.k.k.k.k.r y 9 2 2 k.k.k.k.k.k.k.k.k.              k.k.k.k.k.k.k.k.k.k.k.k.k.k.k.k.k.k.k.k.k.k.k.k.k.k.k.k.",
"k.k.k.k.k.k.k.k.k.k.k.k.k.k.y y 9 2 2 k.k.k.k.k.k.k.k.k.          k.  k.k.k.k.k.k.k.k.k.k.k.k.k.k.k.k.k.k.k.k.k.k.k.k.k.k.k.k.k.",
"k.k.k.k.k.k.k.k.k.k.k.k.k.k.y y 6 2 k.k.k.k.k.k.k.k.k.k.          k.  k.k.k.k.k.k.k.k.k.k.k.k.k.k.k.k.k.k.k.k.k.k.k.k.k.k.k.k.k.",
"k.k.k.k.k.k.k.k.k.k.k.k.k.k.y r 2 2 k.k.k.k.k.k.k.k.k.k.      k.k.  k.k.k.k.k.k.k.k.k.k.k.k.k.k.k.k.k.k.k.k.k.k.k.k.k.k.k.k.k.k.",
"k.k.k.k.k.k.k.k.k.k.k.k.y y r 2 2 2 k.k.k.k.k.k.k.k.k.k.    k.k.k.k.k.k.k.k.k.k.k.k.k.k.k.k.k.k.k.k.k.k.k.k.k.k.k.k.k.k.k.k.k.k.",
"k.k.k.k.k.k.k.k.k.k.k.k.y 9 4 2 k.k.k.k.k.k.k.k.k.k.k.k.    k.k.k.k.k.k.k.k.k.k.k.k.k.k.k.k.k.k.k.k.k.k.k.k.k.k.k.k.k.k.k.k.k.k.",
"k.k.k.k.k.k.k.k.k.k.k.k.y 9 4 2 k.k.k.k.k.k.k.k.k.k.k.k.k.. k.k.k.k.k.k.k.k.k.k.k.k.k.k.k.k.k.k.k.k.k.k.k.k.k.k.k.k.k.k.k.k.k.k.",
"k.k.k.k.k.k.k.k.k.k.k.k.0 7 2 2 k.k.k.k.k.k.k.k.k.k.k.k.k.2 k.k.k.k.k.k.k.k.k.k.k.k.k.k.k.k.k.k.k.k.k.k.k.k.k.k.k.k.k.k.k.k.k.k.",
"k.k.k.k.k.k.k.k.k.k.k.k.2 2 2 k.k.k.k.k.k.k.k.k.k.k.k.k.k.k.k.k.k.k.k.k.k.k.k.k.k.k.k.k.k.k.k.k.k.k.k.k.k.k.k.k.k.k.k.k.k.k.k.k.",
"k.k.k.k.k.k.k.k.k.k.k.k.2 2 2 k.k.k.k.k.k.k.k.k.k.k.k.k.k.k.k.k.k.k.k.k.k.k.k.k.k.k.k.k.k.k.k.k.k.k.k.k.k.k.k.k.k.k.k.k.k.k.k.k.",
"k.k.k.k.k.k.k.k.k.k.k.k.k.k.k.k.k.k.k.k.k.k.k.k.k.k.k.k.k.k.k.k.k.k.k.k.k.k.k.k.k.k.k.k.k.k.k.k.k.k.k.k.k.k.k.k.k.k.k.k.k.k.k.k.",
"k.k.k.k.k.k.k.k.k.k.k.k.k.k.k.k.k.k.k.k.k.k.k.k.k.k.k.k.k.k.k.k.k.k.k.k.k.k.k.k.k.k.k.k.k.k.k.k.k.k.k.k.k.k.k.k.k.k.k.k.k.k.k.k.",
"k.k.k.k.k.k.k.k.k.k.k.k.k.k.k.k.k.k.k.k.k.k.k.k.k.k.k.k.k.k.k.k.k.k.k.k.k.k.k.k.k.k.k.k.k.k.k.k.k.k.k.k.k.k.k.k.k.k.k.k.k.k.k.k.",
"k.k.k.k.k.k.k.k.k.k.k.k.k.k.k.k.k.k.k.k.k.k.k.k.k.k.k.k.k.k.k.k.k.k.k.k.k.k.k.k.k.k.k.k.k.k.k.k.k.k.k.k.k.k.k.k.k.k.k.k.k.k.k.k."
};
