/* XPM */
static char *result[] = {
/* columns rows colors chars-per-pixel */
"64 64 14 1 ",
"  c #2F2F2E",
". c #3B3B39",
"X c #5E182C",
"o c #741A33",
"O c #69483A",
"+ c #484846",
"@ c #9E293B",
"# c #D2735D",
"$ c #DA8335",
"% c #DAA935",
"& c #EC8C76",
"* c #9299A4",
"= c #F1F0FD",
"- c None",
/* pixels */
"----------------------------------------------------------------",
"----------------------------------------------------------------",
"----------------------------------------------------------------",
"----------------------------------------------------------------",
"----------------------------------------------------------------",
"----------------------------------------------------------------",
"----------------------------------------------------------------",
"----------------------------------------------------------------",
"----------------------------------------------------------------",
"----------------------------------------------------------------",
"----------------------------------------------------------------",
"----------------------------------------------------------------",
"----------------------------------------------------------------",
"----------------------------------------------------------------",
"----------------------------------------------------------------",
"----------------------------------------------------------------",
"------------------------       ---------------------------------",
"---------------------   +..... -----      ----------------------",
"-------------------  +.....   ----  +.... ----------------------",
"------------------ +...... ----   +...   -----------------------",
"----------------- +.....       +..... --------------------------",
"---------------- +...Xooooo+++....... --------------------------",
"--------------- +.o@@oo@@o+........  ---------------------------",
"--------------- +o@@@@@@+.......oX   ---------------------------",
"--------------- o@@@o@@+...oooooo... ---------------------------",
"-------------- @@o@o@@@.o@@o@o@@oooX ---------------------------",
"-------------- @o@@o@@@@@@@o@@@@@oo.. --------------------------",
"------------- oo%%%%oo@@o@@@@@@@ooooo --------------------------",
"------------- o%%%%%%ooo@@@@@@@@@@ooo --------------------------",
"------------ %o$O%%%$ooo%%oo@@@@@@@oo   ---   ------------------",
"------------ $o$$$$$$oo$O$$oo@@@@ooooX .   +. ------------------",
"------------ ooo$$$$oooo$$oo@@@@@@@ooo X...+. ------------------",
"----------- @@@@oooo@@@ooo@@@@@@@@ooooX ooX.. ------------------",
"----------  oo@@@@@@@oooo@@@@@@oooX....  oooX. -----------------",
"---------  @&#ooooooo&&&#o@@@@@@......... oooX. ----------------",
"-------- + @*O#&&&&&#OOO&#oooooo+......... oooX. ---------------",
"-------- +  = O* = = =O*O&#####X +.........  ooX      ----------",
"---------    # =     = = =# # #@o +..........    .... ----------",
"------------     #     =  & # #@oo ++............... -----------",
"---------------- # -      & & #@ooo  ++..........   ------------",
"---------------- # -      & & #@ooooo  +++++++   o.+  ----------",
"---------------- # -      & & #@oooooXo       ooooo...   -------",
"---------------- #  XX XXX& & #@oooooo -------  XooooooX -------",
"---------------- # XX XXXX&X& #@oooooo ---------   XXX  --------",
"----------------  XX XXXXX& # #@ooooXo ------------   ----------",
"---------------- @@ @@@XX & #O#oooooXo -------------------------",
"---------------- @@@@@@XX & ##@ooooo  --------------------------",
"---------------- @@@@@XX  &*&#oooooo ---------------------------",
"---------------- @@@@@  =O&&&@oooXoo ---------------------------",
"----------------- @@X = =*#@@oooo o ----------------------------",
"-----------------    *=O*&#oo ooo  -----------------------------",
"----------------- @#O#O#&@@o. ooo ------------------------------",
"----------------- @#&#@#@@oo.. o -------------------------------",
"------------------ ooooooo+++.  --------------------------------",
"-------------------     o++++. ---------------------------------",
"------------------------  +++. ---------------------------------",
"--------------------------  +. ---------------------------------",
"----------------------------   ---------------------------------",
"----------------------------------------------------------------",
"----------------------------------------------------------------",
"----------------------------------------------------------------",
"----------------------------------------------------------------",
"----------------------------------------------------------------",
"----------------------------------------------------------------"
};
