/* XPM */
static char *result[] = {
/* columns rows colors chars-per-pixel */
"64 64 14 1 ",
"  c #2F2F2E",
". c #3B3B39",
"X c #5E182C",
"o c #741A33",
"O c #69483A",
"+ c #484846",
"@ c #9E293B",
"# c #D2735D",
"$ c #DA8335",
"% c #DAA935",
"& c #EC8C76",
"* c #9299A4",
"= c #F1F0FD",
"- c None",
/* pixels */
"----------------------------------------------------------------",
"----------------------------------------------------------------",
"----------------------------------------------------------------",
"----------------------------------------------------------------",
"----------------------------------------------------------------",
"----------------------------------------------------------------",
"----------------------------------------------------------------",
"----------------------------------------------------------------",
"--------------------     ---------------------------------------",
"------------------- Xooo ---------------------------------------",
"------------------ XoX. -  -------------------------------------",
"----------------- Xoo.+  . -------------------------------------",
"----------------- ooX.  .. -------------------------------------",
"---------------- Xoo... .. -------------------------------------",
"---------------- ooo.++ .. -------------------------------------",
"---------------- ooo.  .. --------------------------------------",
"---------------- oooX  .. --------------------------------------",
"---------------- oooo  .. --------------------------------------",
"---------------- oooo +.. --------------------------------------",
"---------------- Xooo +... -------------------------------------",
"----------------- ooo +... -------------------------------------",
"----------------- Xoo +.... ------------------------------------",
"------------------ oo +..... ---------------  ------------------",
"------------------ Xo +...... ------------- . ------------------",
"------------------- X +...... ------------- . ------------------",
"-----------------    o +......  ----------- . ------------------",
"---------------- ooooX +......XX     ----  .. ------------------",
"--------------   XXoooo +.....oooooo.    ...+ ------------------",
"------------- ooooooooo +.....oooooo.X.  ... -------------------",
"------------ ooooooooooo +...Xo@o@oooo. ...+ -------------------",
"-----------   Xoooooooooo +..o@@o@@ooo.X... --------------------",
"---------- ooooooooooooooo +.o@@@@@o@ooo... --------------------",
"--------- oooooooo@@@@@@@@Xo@o@@@@@@@@o...+ --------------------",
"-----      ooooo@##########o@@@@@@@@@@o... --  -----------------",
"----- .....  o@##O        #o@@@@@@@@@oo..+ - . -----------------",
"----- ++++..o@&&###&&&&&###o@@@@o@@@@@o..+ - . -----------------",
"------ +++ooo@&*   X      #o@@@ooo@@ooo..+ - . -----------------",
"------ +++o@##&&&&&&&&&&&##o@@@o$o@@@@..+o  .. -----------------",
"------- +o@@&*O   XXX    =&#o@o$$%@@@@..oo ... -----------------",
"------- oo@&*== XXXXX     O&#oo$O%@o@o.+@o ..+ -----------------",
"-------- o##O  XXXXXX   ==*O&ooo$oo@@.+@@o... ------------------",
"-------- o@O== X@@XX      OO&o@oooo@@@@@oo... ------------------",
"-------- o##* @@@@X X    ==O&o@ooooo@@@@oX..+ ------------------",
"-------- o&O X@@@@ XX      #o@@o$$%o@@o@@... -------------------",
"-------- o## @@@@ XX ---  =&o@o$$%%%oo@@@..+ -------------------",
"--------- @@ @@@@@X        &o@o$$%%%@@@@o.+ --------------------",
"----------    @@@@ ###### =&o@o$$%%%@o@o.+ ---------------------",
"--------------             &o@o$$O%%o@o++ ----------------------",
"------------------------ =*&o@@o$$%o@@   -----------------------",
"------------------------  O#o@@ooooo  --------------------------",
"------------------------ # O#o@o$%  ----------------------------",
"------------------------  =*&o@   ------------------------------",
"-------------------------  @@  ---------------------------------",
"-------------------------     ----------------------------------",
"------------------------- ++ -----------------------------------",
"--------------------------  ------------------------------------",
"----------------------------------------------------------------",
"----------------------------------------------------------------",
"----------------------------------------------------------------",
"----------------------------------------------------------------",
"----------------------------------------------------------------",
"----------------------------------------------------------------",
"----------------------------------------------------------------",
"----------------------------------------------------------------"
};
